<?xml version="1.0" encoding="UTF-8" standalone="no"?>
<!-- Created with Inkscape (http://www.inkscape.org/) -->

<svg
   xmlns:dc="http://purl.org/dc/elements/1.1/"
   xmlns:cc="http://creativecommons.org/ns#"
   xmlns:rdf="http://www.w3.org/1999/02/22-rdf-syntax-ns#"
   xmlns:svg="http://www.w3.org/2000/svg"
   xmlns="http://www.w3.org/2000/svg"
   xmlns:sodipodi="http://sodipodi.sourceforge.net/DTD/sodipodi-0.dtd"
   xmlns:inkscape="http://www.inkscape.org/namespaces/inkscape"
   width="16"
   height="16"
   id="svg2"
   version="1.1"
   inkscape:version="0.48.4 r9939"
   sodipodi:docname="favicon.svg">
  <defs
     id="defs4" />
  <sodipodi:namedview
     id="base"
     pagecolor="#ffffff"
     bordercolor="#666666"
     borderopacity="1.0"
     inkscape:pageopacity="0.0"
     inkscape:pageshadow="2"
     inkscape:zoom="45.254834"
     inkscape:cx="10.675812"
     inkscape:cy="9.0609668"
     inkscape:document-units="px"
     inkscape:current-layer="layer1"
     showgrid="true"
     inkscape:window-width="1920"
     inkscape:window-height="1024"
     inkscape:window-x="0"
     inkscape:window-y="27"
     inkscape:window-maximized="1">
    <inkscape:grid
       type="xygrid"
       id="grid2985"
       empspacing="5"
       visible="true"
       enabled="true"
       snapvisiblegridlinesonly="true" />
  </sodipodi:namedview>
  <metadata
     id="metadata7">
    <rdf:RDF>
      <cc:Work
         rdf:about="">
        <dc:format>image/svg+xml</dc:format>
        <dc:type
           rdf:resource="http://purl.org/dc/dcmitype/StillImage" />
        <dc:title />
      </cc:Work>
    </rdf:RDF>
  </metadata>
  <g
     inkscape:label="Layer 1"
     inkscape:groupmode="layer"
     id="layer1"
     transform="translate(0,-1036.3622)">
    <g
       transform="matrix(0.50000349,0,0,0.49999998,0.03852794,526.20337)"
       id="layer1-7"
       inkscape:label="Layer 1">
      <path
         sodipodi:open="true"
         sodipodi:end="6.8067841"
         sodipodi:start="5.7595865"
         transform="matrix(2,0,0,2,-11.574203,1020.3382)"
         d="m 18.660254,2.9999997 c 1.786328,3.0940109 1.786328,6.9059896 0,10.0000003"
         sodipodi:ry="10"
         sodipodi:rx="10"
         sodipodi:cy="8"
         sodipodi:cx="10"
         id="path3757"
         style="fill:none;stroke:#78408b;stroke-width:2;stroke-linecap:round;stroke-linejoin:round;stroke-miterlimit:4;stroke-opacity:1;stroke-dasharray:none"
         sodipodi:type="arc" />
      <path
         sodipodi:open="true"
         sodipodi:end="6.8067841"
         sodipodi:start="5.7595865"
         transform="matrix(2,0,0,2,-11.574203,1020.3382)"
         d="m 14.928203,3.9999998 c 1.429063,2.4752087 1.429063,5.5247916 0,8.0000002"
         sodipodi:ry="8"
         sodipodi:rx="8"
         sodipodi:cy="8"
         sodipodi:cx="8"
         id="path3761"
         style="fill:none;stroke:#78408b;stroke-width:2;stroke-linecap:round;stroke-linejoin:round;stroke-miterlimit:4;stroke-opacity:1;stroke-dasharray:none"
         sodipodi:type="arc" />
      <path
         sodipodi:open="true"
         sodipodi:end="6.8067841"
         sodipodi:start="5.7595865"
         transform="matrix(2,0,0,2,-11.574203,1020.3382)"
         d="m 11.196152,4.9999998 c 1.071797,1.8564066 1.071797,4.1435938 0,6.0000002"
         sodipodi:ry="6"
         sodipodi:rx="6"
         sodipodi:cy="8"
         sodipodi:cx="6"
         id="path3763"
         style="fill:none;stroke:#78408b;stroke-width:2;stroke-linecap:round;stroke-linejoin:round;stroke-miterlimit:4;stroke-opacity:1;stroke-dasharray:none"
         sodipodi:type="arc" />
      <path
         sodipodi:open="true"
         sodipodi:end="6.8067841"
         sodipodi:start="5.7595865"
         transform="matrix(2,0,0,2,-11.574203,1020.3382)"
         d="m 7.4641016,5.9999999 c 0.7145312,1.2376043 0.7145312,2.7623958 0,4.0000001"
         sodipodi:ry="4"
         sodipodi:rx="4"
         sodipodi:cy="8"
         sodipodi:cx="4"
         id="path3765"
         style="fill:none;stroke:#78408b;stroke-width:2;stroke-linecap:round;stroke-linejoin:round;stroke-miterlimit:4;stroke-opacity:1;stroke-dasharray:none"
         sodipodi:type="arc" />
    </g>
  </g>
</svg>
